3.040242672,4.319302082,2.282009602
2.335083723,4.319302082,2.794340372
2.600077629,4.319302082,3.630631208
3.478644371,4.319302082,3.631270409
3.752182722,4.319302082,2.799259663
3.046229839,4.096092224,1.635949969
2.323422194,3.803272009,1.320954204
1.63592267,3.803272009,1.812635303
1.715662718,4.096092224,2.597585201
1.190822244,3.803272009,3.182515383
1.454908133,3.803272009,3.981587172
2.226078272,4.096092224,4.148307323
2.624661922,3.803272009,4.83649683
3.460385799,3.803272009,4.837013245
3.856842279,4.096092224,4.150303364
4.630759716,3.803272009,3.981587172
4.890146732,3.803272009,3.181412935
4.368955612,4.096092224,2.594355345
4.44308567,3.803272009,1.815614223
3.768917561,3.803272009,1.317271471
3.107193232,3.03720212,0.480544209
2.35519886,3.343392134,0.813244581
1.728922248,2.748412132,0.661248744
1.14877665,2.697602034,1.021140575
1.037966371,3.23426199,1.664129257
0.6457147,3.03720212,2.182836294
0.729901731,3.343392134,2.996092319
0.379363984,2.748412132,3.545525074
0.549833715,2.697612047,4.208521366
1.125542283,3.23426199,4.506649017
1.493989229,3.03720212,5.049330711
2.304679632,3.343392134,5.216553688
2.717327356,2.748412132,5.721815586
3.396135569,2.697602034,5.763107777
3.863712072,3.23426199,5.308046818
4.487551689,3.03720212,5.124983311
4.900362492,3.343392134,4.413815498
5.499125481,2.748412132,4.164914608
5.746613026,2.697602034,3.540186644
5.470849037,3.23426199,2.9551723
5.47799921,3.03720212,2.307182789
4.930544376,3.343392134,1.685943127
4.890141964,2.748412132,1.038210511
4.365242004,2.697612047,0.605811894
3.7242558,3.23426199,0.703018129
2.94639039,2.252972126,0.115324318
2.09186101,2.074492216,0.230529666
1.83385694,1.445272088,0.217050329
1.126755834,1.303142071,0.651704311
0.769719958,1.947632074,1.059009552
0.297717452,1.776942134,1.736519456
0.243846476,2.252972126,2.218982697
0.089884542,2.074492216,3.063841105
0.004098269,1.445272088,3.308675766
0.185718641,1.303142071,4.119943619
0.468715698,1.947632074,4.580725193
0.971353769,1.776942134,5.232709408
1.407226086,2.252972126,5.434540749
2.165340662,2.074492216,5.846818447
2.373002768,1.445272088,6.004397392
3.199369669,1.303142071,6.082028389
3.725786448,1.947632074,5.947652817
4.500444889,1.776942134,5.678708076
4.827095032,2.252972126,5.326538563
5.462236404,2.074492216,4.733593464
5.666772842,1.445272088,4.585273266
5.997534752,1.303142071,3.823089123
6.03156662,1.947632074,3.280020237
6.015170574,1.776942134,2.460164309
5.774246693,2.252972126,2.039270878
5.415831566,2.074492216,1.255589247
5.342042446,1.445272088,1.007710457
4.709788799,1.303142071,0.470711768
4.207023144,1.947632074,0.262747735
3.422219992,1.776942134,0.024992524
